8
40 37 37 38 38 38 38 39 40 40 40 40 40 40 39 39 39 38 38 38 38 38 38 37 40 40 40 39 39 39 38 38 38 38 37 37 37 37 37 37 37 40 39 39 39 39 39 39 39 40 37 37 37 37 37 37 37 40 40 40 40 40 39 39 39 39 38 37 37 37 38 38 38 39 38 37 37 40 40 40 40 40 39 39 39 39 38 38 39 40 40 39 39 38 38 38 38 38 38 38 37 37 37 37 37 37 40 39 39 39 39 39 40 40 40 40 40 40 37 37 37 37 37 37 38 38 38 38 39 40 40 40 39 39 39 38 38 38 38 39 40 40 40 40 39 38 38 38 38 38 37 37 37 40 40 37 37 37 40 39 39 40 40 37 38 37 40 40 39 39 39 39 39 39 39 38 38 38 38 38 38 38 37 37 37 37 37 37 37 40 39 39 39 39 39 39 40 40 40 37 37 37 37 37 38 39 39 39 39 38 37 37 37 37 37 40 40 40 39 39 39 40 39 38 39 40 39 38 39 38 38 38 38 38 37 37 37 37 37 37 37 40 39 39 39 39 39 39 40 37 37 37 37 37 37 40 39 39 39 39 39 39 40 37 37 37 37 37 37 40 39 39 39 39 39 39 40 37 37 37 37 37 37 40 39 39 39 39 39 39 39 38 38 38 38 38 38 38 37 37 40 39 40 37 37 38 38 37 37 37 37 40 39 39 39 40 37 37 37 40 39 39 39 39 40 39 38 39 40 40 37 37 37 38 37 37 37 40 39 39 40 37 37 40 39 39 39 38 39 40 39 38 39 40 39 38 38 38 38 38 38 38 37 40 40 37 38 38 37 37 37 37 37 40 39 39 39 39 40 37 37 37 37 40 39 39 39 39 39 39 40 37 37 37 37 37 37 40 40 40 39 38 38 39 40 40 39 38 38 39 40 40 39 38 38 39 40 40 39 38 38 38 38 38 38 38 37 40 40 37 38 38 37 37 37 37 37 40 39 39 39 39 40 37 37 37 37 
1 5 1 1 5 7 5 1 4 4 7 0 0 1 7 2 0 7 4 7 2 3 0 5 4 5 7 4 1 1 2 7 0 7 1 3 4 5 4 2 6 5 3 3 0 3 2 4 2 6 0 1 3 1 4 4 1 4 3 6 6 6 6 0 6 2 4 2 4 3 0 5 6 6 5 0 5 1 2 2 4 4 6 3 2 4 0 7 3 7 6 0 0 1 4 3 6 4 1 4 1 6 3 7 5 6 7 4 6 2 1 0 0 0 3 1 4 1 3 2 1 2 0 2 
